…
Current carbon intensity for specified dates

``` r
## function arguments
start <- "2019-04-01"
end <- "2019-04-07"

get_british_ci(start, end)
#> # A tibble: 336 x 5
#>    from                to                  forecast actual index   
#>    <dttm>              <dttm>                 <int>  <int> <chr>   
#>  1 2019-03-31 23:30:00 2019-04-01 00:00:00      203    158 low     
#>  2 2019-04-01 00:00:00 2019-04-01 00:30:00      196    161 moderate
#>  3 2019-04-01 00:30:00 2019-04-01 01:00:00      188    166 moderate
#>  4 2019-04-01 01:00:00 2019-04-01 01:30:00      183    171 moderate
#>  5 2019-04-01 01:30:00 2019-04-01 02:00:00      181    170 moderate
#>  6 2019-04-01 02:00:00 2019-04-01 02:30:00      182    168 moderate
#>  7 2019-04-01 02:30:00 2019-04-01 03:00:00      184    163 moderate
#>  8 2019-04-01 03:00:00 2019-04-01 03:30:00      184    162 moderate
#>  9 2019-04-01 03:30:00 2019-04-01 04:00:00      184    169 moderate
#> 10 2019-04-01 04:00:00 2019-04-01 04:30:00      184    183 moderate
#> # ... with 326 more rows
```
…
``` r
# electricity composition for the specified dates
get_mix(start, end)
#> # A tibble: 3,024 x 4
#>    from                to                  fuel     perc
#>    <dttm>              <dttm>              <chr>   <dbl>
#>  1 2019-03-31 23:30:00 2019-04-01 00:00:00 biomass   9.9
#>  2 2019-03-31 23:30:00 2019-04-01 00:00:00 coal      0  
#>  3 2019-03-31 23:30:00 2019-04-01 00:00:00 imports  10  
#>  4 2019-03-31 23:30:00 2019-04-01 00:00:00 gas      28.9
#>  5 2019-03-31 23:30:00 2019-04-01 00:00:00 nuclear  26.1
#>  6 2019-03-31 23:30:00 2019-04-01 00:00:00 other     0.3
#>  7 2019-03-31 23:30:00 2019-04-01 00:00:00 hydro     1.3
#>  8 2019-03-31 23:30:00 2019-04-01 00:00:00 solar     0  
#>  9 2019-03-31 23:30:00 2019-04-01 00:00:00 wind     23.5
#> 10 2019-04-01 00:00:00 2019-04-01 00:30:00 biomass   9.7
#> # ... with 3,014 more rows
```
…
Additionally, you can add a `block` argument that will group the
statistics by specified-length blocks, for example a block length of 2
(hrs over a 24 hr period) will return 12 items with the average, max,
min for each 2 hr block.

``` r
get_stats(start, end, block = 2)
#> # A tibble: 84 x 6
#>    from                to                    max average   min index   
#>    <dttm>              <dttm>              <int>   <int> <int> <chr>   
#>  1 2019-04-01 00:00:00 2019-04-01 02:00:00   171     167   161 moderate
#>  2 2019-04-01 02:00:00 2019-04-01 04:00:00   169     166   162 moderate
#>  3 2019-04-01 04:00:00 2019-04-01 06:00:00   230     207   183 moderate
#>  4 2019-04-01 06:00:00 2019-04-01 08:00:00   240     237   232 moderate
#>  5 2019-04-01 08:00:00 2019-04-01 10:00:00   226     213   201 moderate
#>  6 2019-04-01 10:00:00 2019-04-01 12:00:00   196     192   187 moderate
#>  7 2019-04-01 12:00:00 2019-04-01 14:00:00   205     196   188 moderate
#>  8 2019-04-01 14:00:00 2019-04-01 16:00:00   241     225   209 moderate
#>  9 2019-04-01 16:00:00 2019-04-01 18:00:00   269     259   250 moderate
#> 10 2019-04-01 18:00:00 2019-04-01 20:00:00   279     275   271 high    
#> # ... with 74 more rows
```

### Carbon intensity per UK country

**intensegRid** package allows you to access carbon intensity data per
UK country, i.e. England, Scotland and Wales (Northern Ireland is not
included) with `get_national_ci()`:

``` r
# Current carbon intensity per UK country
get_national_ci()
#> # A tibble: 162 x 9
#>    from                to                  regionid dnoregion shortname fuel 
#>    <dttm>              <dttm>                 <int> <chr>     <chr>     <chr>
#>  1 2020-06-03 14:00:00 2020-06-03 14:30:00        1 Scottish~ North Sc~ biom~
#>  2 2020-06-03 14:00:00 2020-06-03 14:30:00        1 Scottish~ North Sc~ coal 
#>  3 2020-06-03 14:00:00 2020-06-03 14:30:00        1 Scottish~ North Sc~ impo~
#>  4 2020-06-03 14:00:00 2020-06-03 14:30:00        1 Scottish~ North Sc~ gas  
#>  5 2020-06-03 14:00:00 2020-06-03 14:30:00        1 Scottish~ North Sc~ nucl~
#>  6 2020-06-03 14:00:00 2020-06-03 14:30:00        1 Scottish~ North Sc~ other
#>  7 2020-06-03 14:00:00 2020-06-03 14:30:00        1 Scottish~ North Sc~ hydro
#>  8 2020-06-03 14:00:00 2020-06-03 14:30:00        1 Scottish~ North Sc~ solar
#>  9 2020-06-03 14:00:00 2020-06-03 14:30:00        1 Scottish~ North Sc~ wind 
#> 10 2020-06-03 14:00:00 2020-06-03 14:30:00        2 SP Distr~ South Sc~ biom~
#> # ... with 152 more rows, and 3 more variables: perc <dbl>, forecast <int>,
#> #   index <chr>
```
…
``` r
# Carbon intensity for all the UK countries for specified dates 
get_national_ci(start = start, end = end)
#> # A tibble: 54,432 x 9
#>    from                to                  regionid dnoregion shortname fuel 
#>    <dttm>              <dttm>                 <int> <chr>     <chr>     <chr>
#>  1 2019-03-31 23:30:00 2019-04-01 00:00:00        1 Scottish~ North Sc~ biom~
#>  2 2019-03-31 23:30:00 2019-04-01 00:00:00        1 Scottish~ North Sc~ coal 
#>  3 2019-03-31 23:30:00 2019-04-01 00:00:00        1 Scottish~ North Sc~ impo~
#>  4 2019-03-31 23:30:00 2019-04-01 00:00:00        1 Scottish~ North Sc~ gas  
#>  5 2019-03-31 23:30:00 2019-04-01 00:00:00        1 Scottish~ North Sc~ nucl~
#>  6 2019-03-31 23:30:00 2019-04-01 00:00:00        1 Scottish~ North Sc~ other
#>  7 2019-03-31 23:30:00 2019-04-01 00:00:00        1 Scottish~ North Sc~ hydro
#>  8 2019-03-31 23:30:00 2019-04-01 00:00:00        1 Scottish~ North Sc~ solar
#>  9 2019-03-31 23:30:00 2019-04-01 00:00:00        1 Scottish~ North Sc~ wind 
#> 10 2019-03-31 23:30:00 2019-04-01 00:00:00        2 SP Distr~ South Sc~ biom~
#> # ... with 54,422 more rows, and 3 more variables: perc <dbl>, forecast <int>,
#> #   index <chr>
```
…
Similarly to other functions in the package, `get_regional_ci()` also
accepts `start` and `end` arguments:

``` r
get_regional_ci(region_id = 13, 
                start, 
                end)
#> # A tibble: 3,024 x 9
#>    dnoregion shortname region_id from                to                  fuel 
#>    <chr>     <chr>         <int> <dttm>              <dttm>              <chr>
#>  1 UKPN Lon~ London           13 2019-03-31 23:30:00 2019-04-01 00:00:00 biom~
#>  2 UKPN Lon~ London           13 2019-03-31 23:30:00 2019-04-01 00:00:00 coal 
#>  3 UKPN Lon~ London           13 2019-03-31 23:30:00 2019-04-01 00:00:00 impo~
#>  4 UKPN Lon~ London           13 2019-03-31 23:30:00 2019-04-01 00:00:00 gas  
#>  5 UKPN Lon~ London           13 2019-03-31 23:30:00 2019-04-01 00:00:00 nucl~
#>  6 UKPN Lon~ London           13 2019-03-31 23:30:00 2019-04-01 00:00:00 other
#>  7 UKPN Lon~ London           13 2019-03-31 23:30:00 2019-04-01 00:00:00 hydro
#>  8 UKPN Lon~ London           13 2019-03-31 23:30:00 2019-04-01 00:00:00 solar
#>  9 UKPN Lon~ London           13 2019-03-31 23:30:00 2019-04-01 00:00:00 wind 
#> 10 UKPN Lon~ London           13 2019-04-01 00:00:00 2019-04-01 00:30:00 biom~
#> # ... with 3,014 more rows, and 3 more variables: perc <dbl>, forecast <int>,
#> #   index <chr>
```
…
As always, we can pass `start` and `end` arguments to the function to
extend the time window:

``` r
get_postcode_ci(postcode = 'EN2',
                start,
                end)
#> # A tibble: 3,024 x 9
#>    region shortname postcode from                to                  fuel   perc
#>     <int> <chr>     <chr>    <dttm>              <dttm>              <chr> <dbl>
#>  1     10 East Eng~ EN2      2019-03-31 23:30:00 2019-04-01 00:00:00 biom~   0  
#>  2     10 East Eng~ EN2      2019-03-31 23:30:00 2019-04-01 00:00:00 coal    0  
#>  3     10 East Eng~ EN2      2019-03-31 23:30:00 2019-04-01 00:00:00 impo~   3.3
#>  4     10 East Eng~ EN2      2019-03-31 23:30:00 2019-04-01 00:00:00 gas     8.7
#>  5     10 East Eng~ EN2      2019-03-31 23:30:00 2019-04-01 00:00:00 nucl~  42.1
#>  6     10 East Eng~ EN2      2019-03-31 23:30:00 2019-04-01 00:00:00 other   0  
#>  7     10 East Eng~ EN2      2019-03-31 23:30:00 2019-04-01 00:00:00 hydro   0  
#>  8     10 East Eng~ EN2      2019-03-31 23:30:00 2019-04-01 00:00:00 solar   0  
#>  9     10 East Eng~ EN2      2019-03-31 23:30:00 2019-04-01 00:00:00 wind   45.9
#> 10     10 East Eng~ EN2      2019-04-01 00:00:00 2019-04-01 00:30:00 biom~   0.2
#> # ... with 3,014 more rows, and 2 more variables: forecast <int>, index <chr>
```
…
