intro-to-carbon-intensity • intensegRid
…
library(intensegRid)

### intensity ------------
## function arguments
start <- "2019-04-01"
end <- "2019-04-07"

## 
get_stats(start, end)
#> # A tibble: 1 x 6
#>   from                to                    max average   min index   
#>   <dttm>              <dttm>              <int>   <int> <int> <chr>   
#> 1 2019-04-01 00:00:00 2019-04-07 23:59:00   294     224   112 moderate
get_stats(start, end, block = "2")
#> # A tibble: 84 x 6
#>    from                to                    max average   min index   
#>    <dttm>              <dttm>              <int>   <int> <int> <chr>   
#>  1 2019-04-01 00:00:00 2019-04-01 02:00:00   171     167   161 moderate
#>  2 2019-04-01 02:00:00 2019-04-01 04:00:00   169     166   162 moderate
#>  3 2019-04-01 04:00:00 2019-04-01 06:00:00   230     207   183 moderate
#>  4 2019-04-01 06:00:00 2019-04-01 08:00:00   240     237   232 moderate
#>  5 2019-04-01 08:00:00 2019-04-01 10:00:00   226     213   201 moderate
#>  6 2019-04-01 10:00:00 2019-04-01 12:00:00   196     192   187 moderate
#>  7 2019-04-01 12:00:00 2019-04-01 14:00:00   205     196   188 moderate
#>  8 2019-04-01 14:00:00 2019-04-01 16:00:00   241     225   209 moderate
#>  9 2019-04-01 16:00:00 2019-04-01 18:00:00   269     259   250 moderate
#> 10 2019-04-01 18:00:00 2019-04-01 20:00:00   279     275   271 high    
#> # ... with 74 more rows
…
get_mix()
#> # A tibble: 9 x 4
#>   fuel     perc from                to                 
#>   <chr>   <dbl> <dttm>              <dttm>             
#> 1 biomass  10.3 2020-06-11 13:00:00 2020-06-11 13:30:00
#> 2 coal      0   2020-06-11 13:00:00 2020-06-11 13:30:00
#> 3 imports   8.2 2020-06-11 13:00:00 2020-06-11 13:30:00
#> 4 gas      19.7 2020-06-11 13:00:00 2020-06-11 13:30:00
#> 5 nuclear  14.5 2020-06-11 13:00:00 2020-06-11 13:30:00
#> 6 other     0   2020-06-11 13:00:00 2020-06-11 13:30:00
#> 7 hydro     1.2 2020-06-11 13:00:00 2020-06-11 13:30:00
#> 8 solar    13   2020-06-11 13:00:00 2020-06-11 13:30:00
#> 9 wind     33.2 2020-06-11 13:00:00 2020-06-11 13:30:00
get_mix(start, end)
#> # A tibble: 3,024 x 4
#>    from                to                  fuel     perc
#>    <dttm>              <dttm>              <chr>   <dbl>
#>  1 2019-03-31 23:30:00 2019-04-01 00:00:00 biomass   9.9
#>  2 2019-03-31 23:30:00 2019-04-01 00:00:00 coal      0  
#>  3 2019-03-31 23:30:00 2019-04-01 00:00:00 imports  10  
#>  4 2019-03-31 23:30:00 2019-04-01 00:00:00 gas      28.9
#>  5 2019-03-31 23:30:00 2019-04-01 00:00:00 nuclear  26.1
#>  6 2019-03-31 23:30:00 2019-04-01 00:00:00 other     0.3
#>  7 2019-03-31 23:30:00 2019-04-01 00:00:00 hydro     1.3
#>  8 2019-03-31 23:30:00 2019-04-01 00:00:00 solar     0  
#>  9 2019-03-31 23:30:00 2019-04-01 00:00:00 wind     23.5
#> 10 2019-04-01 00:00:00 2019-04-01 00:30:00 biomass   9.7
#> # ... with 3,014 more rows
…
## 
get_national_ci()
#> # A tibble: 162 x 9
#>    from                to                  regionid dnoregion shortname fuel 
#>    <dttm>              <dttm>                 <int> <chr>     <chr>     <chr>
#>  1 2020-06-11 13:00:00 2020-06-11 13:30:00        1 Scottish~ North Sc~ biom~
#>  2 2020-06-11 13:00:00 2020-06-11 13:30:00        1 Scottish~ North Sc~ coal 
#>  3 2020-06-11 13:00:00 2020-06-11 13:30:00        1 Scottish~ North Sc~ impo~
#>  4 2020-06-11 13:00:00 2020-06-11 13:30:00        1 Scottish~ North Sc~ gas  
#>  5 2020-06-11 13:00:00 2020-06-11 13:30:00        1 Scottish~ North Sc~ nucl~
#>  6 2020-06-11 13:00:00 2020-06-11 13:30:00        1 Scottish~ North Sc~ other
#>  7 2020-06-11 13:00:00 2020-06-11 13:30:00        1 Scottish~ North Sc~ hydro
#>  8 2020-06-11 13:00:00 2020-06-11 13:30:00        1 Scottish~ North Sc~ solar
#>  9 2020-06-11 13:00:00 2020-06-11 13:30:00        1 Scottish~ North Sc~ wind 
#> 10 2020-06-11 13:00:00 2020-06-11 13:30:00        2 SP Distr~ South Sc~ biom~
#> # ... with 152 more rows, and 3 more variables: perc <dbl>, forecast <int>,
#> #   index <chr>
…
